{"_id":{"$oid":"5be6e55f8329995af4c11113"},"name":"Condado Lagoon Villas","bg":"condado_lagoon_villas_at_caribe.jpg"}
{"_id":{"$oid":"5be6e57d8329995af4c11115"},"name":"Fiji Beach Resort and Spa","bg":"fiji_beach_resort_and_spa.jpg"}
{"_id":{"$oid":"5be6e5908329995af4c11116"},"name":"Sukhumvit Bangkok","bg":"sukhumvit_bangkok_thailand.jpg"}
