{
	"baseUrl": "http://localhost:3000",
	"apiUrl": "http://localhost:3001/graphql",
	"graphqlPath": "/graphql",
	"api": {
		"host": "api",
		"port": 3000
	},
	"web": {
		"port": 3000
	},
	"mongo": {
		"db": "assessment",
		"uri": "mongodb://mongo:27017"
	}
}
